cid;insEpl;mi1;insProp;mi2;insTotal;updEpl;mu1;updProp;mu2;updTotal;delEpl;md1;delProp;md2;delTotal;dbsize(kb);q1;m1(kb);q2;m2(kb);q3;m3(kb);q4;m4(kb);q5;m5(kb);q6;m6(kb);q7;m7(kb);q8;m8(kb)
0;997;30;1027;0;0;0;0;0;0;288;120;70827;32;113225;16;77015;21;39214;10;39921;16;80903;16;81610;48;168528
1;53;21;74;20;30;50;91;586;677;448;16;65746;36;100214;13;68248;10;34481;8;35012;14;70202;12;71440;36;147186
2;70;20;90;12;25;37;64;451;515;544;17;42350;30;64586;9;44824;11;22942;9;22942;14;46238;13;48712;36;99569
3;71;17;88;21;43;64;49;382;431;592;16;87335;35;132611;10;89114;10;45617;9;45617;14;91234;15;93355;34;189894
4;65;17;82;21;41;62;42;388;430;688;16;133288;39;203467;11;136115;8;68764;8;69471;11;138943;12;139296;33;283895
5;82;116;198;28;61;89;38;301;339;576;27;87262;35;52716;9;38618;8;19846;7;19846;12;40048;14;42547;30;87229
6;73;18;91;31;67;98;39;244;283;720;19;78517;35;119378;10;81375;11;41224;8;41224;15;82448;13;84608;29;172435
7;68;14;82;32;60;92;35;222;257;816;19;119871;40;183586;9;122390;10;61907;7;62619;11;125238;12;125594;26;256882
8;19;12;31;38;79;117;31;226;257;864;20;163871;54;247586;10;166718;12;83359;8;83715;10;169566;14;169566;32;343785
9;35;13;48;47;84;131;36;179;215;1104;22;61427;45;92482;9;64160;8;32080;6;32080;11;66234;15;66926;29;137269
10;62;16;78;43;86;129;30;205;235;1200;23;102479;54;154061;9;105213;8;52606;6;52606;12;107287;27;107978;24;219375
11;38;19;57;54;92;146;16;150;166;1216;25;143540;52;215310;10;145590;8;73137;8;73137;11;146957;16;149008;26;301099
12;51;9;60;52;107;159;22;152;174;1264;23;45952;53;70937;9;48630;7;24647;7;25642;11;51284;15;51284;27;107534
13;59;6;65;64;105;169;11;85;96;1408;29;86303;55;132432;8;88950;8;44805;6;45798;13;91596;18;91929;23;189186
14;32;10;42;51;114;165;11;72;83;1568;26;126066;56;191107;9;128744;8;64703;7;65698;12;131397;18;131397;24;267762
15;45;7;52;55;110;165;11;59;70;1616;34;131632;87;50865;10;35182;8;18227;7;18227;13;36772;16;38999;22;80861
16;6;4;10;56;111;167;6;45;51;1696;27;71448;69;108444;8;74628;8;37314;8;37314;13;76219;16;77173;25;158532
17;34;6;40;72;136;208;5;41;46;1792;26;110667;63;166319;10;113215;7;56607;8;56929;19;115791;24;115791;25;236048
18;28;5;33;60;122;182;3;23;26;1888;32;148935;69;223722;9;151488;8;75744;8;75744;12;153420;18;154064;26;312263
19;18;3;21;67;122;189;1;12;13;1936;30;58763;69;88452;9;61227;9;30613;8;30613;13;63074;21;63689;28;131697
20;0;2;2;78;157;235;0;0;0;1456;29;95883;72;144440;8;98345;7;49172;6;49480;13;100807;23;100807;22;207253
