instanceId;sigNr;funcText;address
170000000;17.ACA00.CE000.XQ00;created in commit 7;007.20.05.0.00
170000001;17.ACA00.CE000.XQ01;created in commit 7;007.20.04.0.00
170000002;17.ACA00.CE000.XQ02;created in commit 7;007.20.03.0.00
170000003;17.ACA00.CE000.XQ03;created in commit 7;007.20.02.0.00
170000004;17.ACA00.CE000.XQ04;created in commit 7;007.20.01.0.00
170000005;17.ACA00.CE000.XQ05;created in commit 7;007.20.05.0.00
170000006;17.ACA00.CE000.XQ06;created in commit 7;007.20.04.0.00
170000007;17.ACA00.CE000.XQ07;created in commit 7;007.20.03.0.00
170000008;17.ACA00.CE000.XQ08;created in commit 7;007.20.02.0.00
170000009;17.ACA00.CE000.XQ09;created in commit 7;007.20.01.0.00
170000010;17.ACA00.CE000.XQ10;created in commit 7;007.20.05.0.00
170000011;17.ACA00.CE000.XQ11;created in commit 7;007.20.04.0.00
170000012;17.ACA00.CE000.XQ12;created in commit 7;007.20.03.0.00
170000013;17.ACA00.CE000.XQ13;created in commit 7;007.20.02.0.00
170000014;17.ACA00.CE000.XQ14;created in commit 7;007.20.01.0.00
170000015;17.ACA00.CE000.XQ15;created in commit 7;007.20.05.0.00
170000016;17.ACA00.CE000.XQ16;created in commit 7;007.20.04.0.00
170000017;17.ACA00.CE000.XQ17;created in commit 7;007.20.03.0.00
170000018;17.ACA00.CE000.XQ18;created in commit 7;007.20.02.0.00
170000019;17.ACA00.CE000.XQ19;created in commit 7;007.20.01.0.00
170000020;17.ACA00.CE000.XQ20;created in commit 7;007.20.05.0.00
170000021;17.ACA00.CE000.XQ21;created in commit 7;007.20.04.0.00
170000022;17.ACA00.CE000.XQ22;created in commit 7;007.20.03.0.00
170000023;17.ACA00.CE000.XQ23;created in commit 7;007.20.02.0.00
170000024;17.ACA00.CE000.XQ24;created in commit 7;007.20.01.0.00
170000025;17.ACA00.CE000.XQ25;created in commit 7;007.20.05.0.00
170000026;17.ACA00.CE000.XQ26;created in commit 7;007.20.04.0.00
170000027;17.ACA00.CE000.XQ27;created in commit 7;007.20.03.0.00
170000028;17.ACA00.CE000.XQ28;created in commit 7;007.20.02.0.00
170000029;17.ACA00.CE000.XQ29;created in commit 7;007.20.01.0.00
170000030;17.ACA00.CE000.XQ30;created in commit 7;007.20.05.0.00
170000031;17.ACA00.CE000.XQ31;created in commit 7;007.20.04.0.00
170000032;17.ACA00.CE000.XQ32;created in commit 7;007.20.03.0.00
170000033;17.ACA00.CE000.XQ33;created in commit 7;007.20.02.0.00
170000034;17.ACA00.CE000.XQ34;created in commit 7;007.20.01.0.00
170000035;17.ACA00.CE000.XQ35;created in commit 7;007.20.05.0.00
170000036;17.ACA00.CE000.XQ36;created in commit 7;007.20.04.0.00
170000037;17.ACA00.CE000.XQ37;created in commit 7;007.20.03.0.00
170000038;17.ACA00.CE000.XQ38;created in commit 7;007.20.02.0.00
170000039;17.ACA00.CE000.XQ39;created in commit 7;007.20.01.0.00
170000040;17.ACA00.CE000.XQ40;created in commit 7;007.20.05.0.00
170000041;17.ACA00.CE000.XQ41;created in commit 7;007.20.04.0.00
170000042;17.ACA00.CE000.XQ42;created in commit 7;007.20.03.0.00
170000043;17.ACA00.CE000.XQ43;created in commit 7;007.20.02.0.00
170000044;17.ACA00.CE000.XQ44;created in commit 7;007.20.01.0.00
170000045;17.ACA00.CE000.XQ45;created in commit 7;007.20.05.0.00
170000046;17.ACA00.CE000.XQ46;created in commit 7;007.20.04.0.00
170000047;17.ACA00.CE000.XQ47;created in commit 7;007.20.03.0.00
170000048;17.ACA00.CE000.XQ48;created in commit 7;007.20.02.0.00
170000049;17.ACA00.CE000.XQ49;created in commit 7;007.20.01.0.00
170000050;17.ACA00.CE000.XQ50;created in commit 7;007.20.05.0.00
170000051;17.ACA00.CE000.XQ51;created in commit 7;007.20.04.0.00
170000052;17.ACA00.CE000.XQ52;created in commit 7;007.20.03.0.00
170000053;17.ACA00.CE000.XQ53;created in commit 7;007.20.02.0.00
170000054;17.ACA00.CE000.XQ54;created in commit 7;007.20.01.0.00
170000055;17.ACA00.CE000.XQ55;created in commit 7;007.20.05.0.00
170000056;17.ACA00.CE000.XQ56;created in commit 7;007.20.04.0.00
170000057;17.ACA00.CE000.XQ57;created in commit 7;007.20.03.0.00
170000058;17.ACA00.CE000.XQ58;created in commit 7;007.20.02.0.00
170000059;17.ACA00.CE000.XQ59;created in commit 7;007.20.01.0.00
170000060;17.ACA00.CE000.XQ60;created in commit 7;007.20.05.0.00
170000061;17.ACA00.CE000.XQ61;created in commit 7;007.20.04.0.00
170000062;17.ACA00.CE000.XQ62;created in commit 7;007.20.03.0.00
170000063;17.ACA00.CE000.XQ63;created in commit 7;007.20.02.0.00
170000064;17.ACA00.CE000.XQ64;created in commit 7;007.20.01.0.00
