instanceId;sigNr;funcText;address
180000000;18.ACA00.CE000.XQ00;created in commit 8;007.20.05.0.00
180000001;18.ACA00.CE000.XQ01;created in commit 8;007.20.04.0.00
180000002;18.ACA00.CE000.XQ02;created in commit 8;007.20.03.0.00
180000003;18.ACA00.CE000.XQ03;created in commit 8;007.20.02.0.00
180000004;18.ACA00.CE000.XQ04;created in commit 8;007.20.01.0.00
180000005;18.ACA00.CE000.XQ05;created in commit 8;007.20.05.0.00
180000006;18.ACA00.CE000.XQ06;created in commit 8;007.20.04.0.00
180000007;18.ACA00.CE000.XQ07;created in commit 8;007.20.03.0.00
180000008;18.ACA00.CE000.XQ08;created in commit 8;007.20.02.0.00
180000009;18.ACA00.CE000.XQ09;created in commit 8;007.20.01.0.00
180000010;18.ACA00.CE000.XQ10;created in commit 8;007.20.05.0.00
180000011;18.ACA00.CE000.XQ11;created in commit 8;007.20.04.0.00
180000012;18.ACA00.CE000.XQ12;created in commit 8;007.20.03.0.00
180000013;18.ACA00.CE000.XQ13;created in commit 8;007.20.02.0.00
180000014;18.ACA00.CE000.XQ14;created in commit 8;007.20.01.0.00
180000015;18.ACA00.CE000.XQ15;created in commit 8;007.20.05.0.00
180000016;18.ACA00.CE000.XQ16;created in commit 8;007.20.04.0.00
180000017;18.ACA00.CE000.XQ17;created in commit 8;007.20.03.0.00
180000018;18.ACA00.CE000.XQ18;created in commit 8;007.20.02.0.00
180000019;18.ACA00.CE000.XQ19;created in commit 8;007.20.01.0.00
180000020;18.ACA00.CE000.XQ20;created in commit 8;007.20.05.0.00
180000021;18.ACA00.CE000.XQ21;created in commit 8;007.20.04.0.00
180000022;18.ACA00.CE000.XQ22;created in commit 8;007.20.03.0.00
180000023;18.ACA00.CE000.XQ23;created in commit 8;007.20.02.0.00
180000024;18.ACA00.CE000.XQ24;created in commit 8;007.20.01.0.00
180000025;18.ACA00.CE000.XQ25;created in commit 8;007.20.05.0.00
180000026;18.ACA00.CE000.XQ26;created in commit 8;007.20.04.0.00
180000027;18.ACA00.CE000.XQ27;created in commit 8;007.20.03.0.00
180000028;18.ACA00.CE000.XQ28;created in commit 8;007.20.02.0.00
180000029;18.ACA00.CE000.XQ29;created in commit 8;007.20.01.0.00
180000030;18.ACA00.CE000.XQ30;created in commit 8;007.20.05.0.00
180000031;18.ACA00.CE000.XQ31;created in commit 8;007.20.04.0.00
180000032;18.ACA00.CE000.XQ32;created in commit 8;007.20.03.0.00
180000033;18.ACA00.CE000.XQ33;created in commit 8;007.20.02.0.00
180000034;18.ACA00.CE000.XQ34;created in commit 8;007.20.01.0.00
180000035;18.ACA00.CE000.XQ35;created in commit 8;007.20.05.0.00
180000036;18.ACA00.CE000.XQ36;created in commit 8;007.20.04.0.00
180000037;18.ACA00.CE000.XQ37;created in commit 8;007.20.03.0.00
180000038;18.ACA00.CE000.XQ38;created in commit 8;007.20.02.0.00
180000039;18.ACA00.CE000.XQ39;created in commit 8;007.20.01.0.00
180000040;18.ACA00.CE000.XQ40;created in commit 8;007.20.05.0.00
180000041;18.ACA00.CE000.XQ41;created in commit 8;007.20.04.0.00
180000042;18.ACA00.CE000.XQ42;created in commit 8;007.20.03.0.00
180000043;18.ACA00.CE000.XQ43;created in commit 8;007.20.02.0.00
180000044;18.ACA00.CE000.XQ44;created in commit 8;007.20.01.0.00
180000045;18.ACA00.CE000.XQ45;created in commit 8;007.20.05.0.00
180000046;18.ACA00.CE000.XQ46;created in commit 8;007.20.04.0.00
180000047;18.ACA00.CE000.XQ47;created in commit 8;007.20.03.0.00
180000048;18.ACA00.CE000.XQ48;created in commit 8;007.20.02.0.00
180000049;18.ACA00.CE000.XQ49;created in commit 8;007.20.01.0.00
180000050;18.ACA00.CE000.XQ50;created in commit 8;007.20.05.0.00
180000051;18.ACA00.CE000.XQ51;created in commit 8;007.20.04.0.00
180000052;18.ACA00.CE000.XQ52;created in commit 8;007.20.03.0.00
180000053;18.ACA00.CE000.XQ53;created in commit 8;007.20.02.0.00
180000054;18.ACA00.CE000.XQ54;created in commit 8;007.20.01.0.00
180000055;18.ACA00.CE000.XQ55;created in commit 8;007.20.05.0.00
180000056;18.ACA00.CE000.XQ56;created in commit 8;007.20.04.0.00
180000057;18.ACA00.CE000.XQ57;created in commit 8;007.20.03.0.00
180000058;18.ACA00.CE000.XQ58;created in commit 8;007.20.02.0.00
180000059;18.ACA00.CE000.XQ59;created in commit 8;007.20.01.0.00
