instanceId;sigNr;funcText;address
190000050;19.ACA00.CE000.XQ50;modified in commit 11;007.20.05.0.00
190000051;19.ACA00.CE000.XQ51;modified in commit 11;007.20.04.0.00
190000052;19.ACA00.CE000.XQ52;modified in commit 11;007.20.03.0.00
190000053;19.ACA00.CE000.XQ53;modified in commit 11;007.20.02.0.00
190000054;19.ACA00.CE000.XQ54;modified in commit 11;007.20.01.0.00
200000000;20.ACA00.CE000.XQ00;modified in commit 11;007.20.05.0.00
200000001;20.ACA00.CE000.XQ01;modified in commit 11;007.20.04.0.00
200000002;20.ACA00.CE000.XQ02;modified in commit 11;007.20.03.0.00
200000003;20.ACA00.CE000.XQ03;modified in commit 11;007.20.02.0.00
200000004;20.ACA00.CE000.XQ04;modified in commit 11;007.20.01.0.00
200000005;20.ACA00.CE000.XQ05;modified in commit 11;007.20.05.0.00
200000006;20.ACA00.CE000.XQ06;modified in commit 11;007.20.04.0.00
200000007;20.ACA00.CE000.XQ07;modified in commit 11;007.20.03.0.00
200000008;20.ACA00.CE000.XQ08;modified in commit 11;007.20.02.0.00
200000009;20.ACA00.CE000.XQ09;modified in commit 11;007.20.01.0.00
200000010;20.ACA00.CE000.XQ10;modified in commit 11;007.20.05.0.00
200000011;20.ACA00.CE000.XQ11;modified in commit 11;007.20.04.0.00
200000012;20.ACA00.CE000.XQ12;modified in commit 11;007.20.03.0.00
200000013;20.ACA00.CE000.XQ13;modified in commit 11;007.20.02.0.00
200000014;20.ACA00.CE000.XQ14;modified in commit 11;007.20.01.0.00
200000015;20.ACA00.CE000.XQ15;modified in commit 11;007.20.05.0.00
200000016;20.ACA00.CE000.XQ16;modified in commit 11;007.20.04.0.00
200000017;20.ACA00.CE000.XQ17;modified in commit 11;007.20.03.0.00
200000018;20.ACA00.CE000.XQ18;modified in commit 11;007.20.02.0.00
200000019;20.ACA00.CE000.XQ19;modified in commit 11;007.20.01.0.00
200000020;20.ACA00.CE000.XQ20;modified in commit 11;007.20.05.0.00
200000021;20.ACA00.CE000.XQ21;modified in commit 11;007.20.04.0.00
200000022;20.ACA00.CE000.XQ22;modified in commit 11;007.20.03.0.00
200000023;20.ACA00.CE000.XQ23;modified in commit 11;007.20.02.0.00
200000024;20.ACA00.CE000.XQ24;modified in commit 11;007.20.01.0.00
200000025;20.ACA00.CE000.XQ25;modified in commit 11;007.20.05.0.00
200000026;20.ACA00.CE000.XQ26;modified in commit 11;007.20.04.0.00
200000027;20.ACA00.CE000.XQ27;modified in commit 11;007.20.03.0.00
200000028;20.ACA00.CE000.XQ28;modified in commit 11;007.20.02.0.00
200000029;20.ACA00.CE000.XQ29;modified in commit 11;007.20.01.0.00
200000030;20.ACA00.CE000.XQ30;modified in commit 11;007.20.05.0.00
200000031;20.ACA00.CE000.XQ31;modified in commit 11;007.20.04.0.00
200000032;20.ACA00.CE000.XQ32;modified in commit 11;007.20.03.0.00
200000033;20.ACA00.CE000.XQ33;modified in commit 11;007.20.02.0.00
200000034;20.ACA00.CE000.XQ34;modified in commit 11;007.20.01.0.00
