instanceId;sigNr;funcText;address
130000065;13.ACA00.CE000.XQ65;modified in commit 4;007.20.05.0.00
130000066;13.ACA00.CE000.XQ66;modified in commit 4;007.20.04.0.00
130000067;13.ACA00.CE000.XQ67;modified in commit 4;007.20.03.0.00
130000068;13.ACA00.CE000.XQ68;modified in commit 4;007.20.02.0.00
130000069;13.ACA00.CE000.XQ69;modified in commit 4;007.20.01.0.00
130000070;13.ACA00.CE000.XQ70;modified in commit 4;007.20.05.0.00
130000071;13.ACA00.CE000.XQ71;modified in commit 4;007.20.04.0.00
130000072;13.ACA00.CE000.XQ72;modified in commit 4;007.20.03.0.00
130000073;13.ACA00.CE000.XQ73;modified in commit 4;007.20.02.0.00
130000074;13.ACA00.CE000.XQ74;modified in commit 4;007.20.01.0.00
130000075;13.ACA00.CE000.XQ75;modified in commit 4;007.20.05.0.00
130000076;13.ACA00.CE000.XQ76;modified in commit 4;007.20.04.0.00
130000077;13.ACA00.CE000.XQ77;modified in commit 4;007.20.03.0.00
130000078;13.ACA00.CE000.XQ78;modified in commit 4;007.20.02.0.00
130000079;13.ACA00.CE000.XQ79;modified in commit 4;007.20.01.0.00
130000080;13.ACA00.CE000.XQ80;modified in commit 4;007.20.05.0.00
130000081;13.ACA00.CE000.XQ81;modified in commit 4;007.20.04.0.00
130000082;13.ACA00.CE000.XQ82;modified in commit 4;007.20.03.0.00
130000083;13.ACA00.CE000.XQ83;modified in commit 4;007.20.02.0.00
130000084;13.ACA00.CE000.XQ84;modified in commit 4;007.20.01.0.00
