instanceId;sigNr;funcText;address
130000065;13.ACA00.CE000.XQ65;modified in commit 4;007.20.05.0.00
130000066;13.ACA00.CE000.XQ66;modified in commit 4;007.20.04.0.00
130000067;13.ACA00.CE000.XQ67;modified in commit 4;007.20.03.0.00
130000068;13.ACA00.CE000.XQ68;modified in commit 4;007.20.02.0.00
130000069;13.ACA00.CE000.XQ69;modified in commit 4;007.20.01.0.00
130000070;13.ACA00.CE000.XQ70;modified in commit 4;007.20.05.0.00
130000071;13.ACA00.CE000.XQ71;modified in commit 4;007.20.04.0.00
130000072;13.ACA00.CE000.XQ72;modified in commit 4;007.20.03.0.00
130000073;13.ACA00.CE000.XQ73;modified in commit 4;007.20.02.0.00
130000074;13.ACA00.CE000.XQ74;modified in commit 4;007.20.01.0.00
130000075;13.ACA00.CE000.XQ75;modified in commit 4;007.20.05.0.00
130000076;13.ACA00.CE000.XQ76;modified in commit 4;007.20.04.0.00
130000077;13.ACA00.CE000.XQ77;modified in commit 4;007.20.03.0.00
130000078;13.ACA00.CE000.XQ78;modified in commit 4;007.20.02.0.00
130000079;13.ACA00.CE000.XQ79;modified in commit 4;007.20.01.0.00
130000080;13.ACA00.CE000.XQ80;modified in commit 4;007.20.05.0.00
130000081;13.ACA00.CE000.XQ81;modified in commit 4;007.20.04.0.00
130000082;13.ACA00.CE000.XQ82;modified in commit 4;007.20.03.0.00
130000083;13.ACA00.CE000.XQ83;modified in commit 4;007.20.02.0.00
130000084;13.ACA00.CE000.XQ84;modified in commit 4;007.20.01.0.00
140000000;14.ACA00.CE000.XQ00;created in commit 4;007.20.05.0.00
140000001;14.ACA00.CE000.XQ01;created in commit 4;007.20.04.0.00
140000002;14.ACA00.CE000.XQ02;created in commit 4;007.20.03.0.00
140000003;14.ACA00.CE000.XQ03;created in commit 4;007.20.02.0.00
140000004;14.ACA00.CE000.XQ04;created in commit 4;007.20.01.0.00
140000005;14.ACA00.CE000.XQ05;created in commit 4;007.20.05.0.00
140000006;14.ACA00.CE000.XQ06;created in commit 4;007.20.04.0.00
140000007;14.ACA00.CE000.XQ07;created in commit 4;007.20.03.0.00
140000008;14.ACA00.CE000.XQ08;created in commit 4;007.20.02.0.00
140000009;14.ACA00.CE000.XQ09;created in commit 4;007.20.01.0.00
140000010;14.ACA00.CE000.XQ10;created in commit 4;007.20.05.0.00
140000011;14.ACA00.CE000.XQ11;created in commit 4;007.20.04.0.00
140000012;14.ACA00.CE000.XQ12;created in commit 4;007.20.03.0.00
140000013;14.ACA00.CE000.XQ13;created in commit 4;007.20.02.0.00
140000014;14.ACA00.CE000.XQ14;created in commit 4;007.20.01.0.00
140000015;14.ACA00.CE000.XQ15;created in commit 4;007.20.05.0.00
140000016;14.ACA00.CE000.XQ16;created in commit 4;007.20.04.0.00
140000017;14.ACA00.CE000.XQ17;created in commit 4;007.20.03.0.00
140000018;14.ACA00.CE000.XQ18;created in commit 4;007.20.02.0.00
140000019;14.ACA00.CE000.XQ19;created in commit 4;007.20.01.0.00
140000020;14.ACA00.CE000.XQ20;created in commit 4;007.20.05.0.00
140000021;14.ACA00.CE000.XQ21;created in commit 4;007.20.04.0.00
140000022;14.ACA00.CE000.XQ22;created in commit 4;007.20.03.0.00
140000023;14.ACA00.CE000.XQ23;created in commit 4;007.20.02.0.00
140000024;14.ACA00.CE000.XQ24;created in commit 4;007.20.01.0.00
140000025;14.ACA00.CE000.XQ25;created in commit 4;007.20.05.0.00
140000026;14.ACA00.CE000.XQ26;created in commit 4;007.20.04.0.00
140000027;14.ACA00.CE000.XQ27;created in commit 4;007.20.03.0.00
140000028;14.ACA00.CE000.XQ28;created in commit 4;007.20.02.0.00
140000029;14.ACA00.CE000.XQ29;created in commit 4;007.20.01.0.00
140000030;14.ACA00.CE000.XQ30;created in commit 4;007.20.05.0.00
140000031;14.ACA00.CE000.XQ31;created in commit 4;007.20.04.0.00
140000032;14.ACA00.CE000.XQ32;created in commit 4;007.20.03.0.00
140000033;14.ACA00.CE000.XQ33;created in commit 4;007.20.02.0.00
140000034;14.ACA00.CE000.XQ34;created in commit 4;007.20.01.0.00
140000035;14.ACA00.CE000.XQ35;created in commit 4;007.20.05.0.00
140000036;14.ACA00.CE000.XQ36;created in commit 4;007.20.04.0.00
140000037;14.ACA00.CE000.XQ37;created in commit 4;007.20.03.0.00
140000038;14.ACA00.CE000.XQ38;created in commit 4;007.20.02.0.00
140000039;14.ACA00.CE000.XQ39;created in commit 4;007.20.01.0.00
140000040;14.ACA00.CE000.XQ40;created in commit 4;007.20.05.0.00
140000041;14.ACA00.CE000.XQ41;created in commit 4;007.20.04.0.00
140000042;14.ACA00.CE000.XQ42;created in commit 4;007.20.03.0.00
140000043;14.ACA00.CE000.XQ43;created in commit 4;007.20.02.0.00
140000044;14.ACA00.CE000.XQ44;created in commit 4;007.20.01.0.00
140000045;14.ACA00.CE000.XQ45;created in commit 4;007.20.05.0.00
140000046;14.ACA00.CE000.XQ46;created in commit 4;007.20.04.0.00
140000047;14.ACA00.CE000.XQ47;created in commit 4;007.20.03.0.00
140000048;14.ACA00.CE000.XQ48;created in commit 4;007.20.02.0.00
140000049;14.ACA00.CE000.XQ49;created in commit 4;007.20.01.0.00
140000050;14.ACA00.CE000.XQ50;created in commit 4;007.20.05.0.00
140000051;14.ACA00.CE000.XQ51;created in commit 4;007.20.04.0.00
140000052;14.ACA00.CE000.XQ52;created in commit 4;007.20.03.0.00
140000053;14.ACA00.CE000.XQ53;created in commit 4;007.20.02.0.00
140000054;14.ACA00.CE000.XQ54;created in commit 4;007.20.01.0.00
