instanceId;sigNr;funcText;address
160000035;16.ACA00.CE000.XQ35;modified in commit 7;007.20.05.0.00
160000036;16.ACA00.CE000.XQ36;modified in commit 7;007.20.04.0.00
160000037;16.ACA00.CE000.XQ37;modified in commit 7;007.20.03.0.00
160000038;16.ACA00.CE000.XQ38;modified in commit 7;007.20.02.0.00
160000039;16.ACA00.CE000.XQ39;modified in commit 7;007.20.01.0.00
160000040;16.ACA00.CE000.XQ40;modified in commit 7;007.20.05.0.00
160000041;16.ACA00.CE000.XQ41;modified in commit 7;007.20.04.0.00
160000042;16.ACA00.CE000.XQ42;modified in commit 7;007.20.03.0.00
160000043;16.ACA00.CE000.XQ43;modified in commit 7;007.20.02.0.00
160000044;16.ACA00.CE000.XQ44;modified in commit 7;007.20.01.0.00
160000045;16.ACA00.CE000.XQ45;modified in commit 7;007.20.05.0.00
160000046;16.ACA00.CE000.XQ46;modified in commit 7;007.20.04.0.00
160000047;16.ACA00.CE000.XQ47;modified in commit 7;007.20.03.0.00
160000048;16.ACA00.CE000.XQ48;modified in commit 7;007.20.02.0.00
160000049;16.ACA00.CE000.XQ49;modified in commit 7;007.20.01.0.00
160000050;16.ACA00.CE000.XQ50;modified in commit 7;007.20.05.0.00
160000051;16.ACA00.CE000.XQ51;modified in commit 7;007.20.04.0.00
160000052;16.ACA00.CE000.XQ52;modified in commit 7;007.20.03.0.00
160000053;16.ACA00.CE000.XQ53;modified in commit 7;007.20.02.0.00
160000054;16.ACA00.CE000.XQ54;modified in commit 7;007.20.01.0.00
160000055;16.ACA00.CE000.XQ55;modified in commit 7;007.20.05.0.00
160000056;16.ACA00.CE000.XQ56;modified in commit 7;007.20.04.0.00
160000057;16.ACA00.CE000.XQ57;modified in commit 7;007.20.03.0.00
160000058;16.ACA00.CE000.XQ58;modified in commit 7;007.20.02.0.00
160000059;16.ACA00.CE000.XQ59;modified in commit 7;007.20.01.0.00
160000060;16.ACA00.CE000.XQ60;modified in commit 7;007.20.05.0.00
160000061;16.ACA00.CE000.XQ61;modified in commit 7;007.20.04.0.00
160000062;16.ACA00.CE000.XQ62;modified in commit 7;007.20.03.0.00
160000063;16.ACA00.CE000.XQ63;modified in commit 7;007.20.02.0.00
160000064;16.ACA00.CE000.XQ64;modified in commit 7;007.20.01.0.00
160000065;16.ACA00.CE000.XQ65;modified in commit 7;007.20.05.0.00
160000066;16.ACA00.CE000.XQ66;modified in commit 7;007.20.04.0.00
160000067;16.ACA00.CE000.XQ67;modified in commit 7;007.20.03.0.00
160000068;16.ACA00.CE000.XQ68;modified in commit 7;007.20.02.0.00
160000069;16.ACA00.CE000.XQ69;modified in commit 7;007.20.01.0.00
170000000;17.ACA00.CE000.XQ00;created in commit 7;007.20.05.0.00
170000001;17.ACA00.CE000.XQ01;created in commit 7;007.20.04.0.00
170000002;17.ACA00.CE000.XQ02;created in commit 7;007.20.03.0.00
170000003;17.ACA00.CE000.XQ03;created in commit 7;007.20.02.0.00
170000004;17.ACA00.CE000.XQ04;created in commit 7;007.20.01.0.00
170000005;17.ACA00.CE000.XQ05;created in commit 7;007.20.05.0.00
170000006;17.ACA00.CE000.XQ06;created in commit 7;007.20.04.0.00
170000007;17.ACA00.CE000.XQ07;created in commit 7;007.20.03.0.00
170000008;17.ACA00.CE000.XQ08;created in commit 7;007.20.02.0.00
170000009;17.ACA00.CE000.XQ09;created in commit 7;007.20.01.0.00
170000010;17.ACA00.CE000.XQ10;created in commit 7;007.20.05.0.00
170000011;17.ACA00.CE000.XQ11;created in commit 7;007.20.04.0.00
170000012;17.ACA00.CE000.XQ12;created in commit 7;007.20.03.0.00
170000013;17.ACA00.CE000.XQ13;created in commit 7;007.20.02.0.00
170000014;17.ACA00.CE000.XQ14;created in commit 7;007.20.01.0.00
170000015;17.ACA00.CE000.XQ15;created in commit 7;007.20.05.0.00
170000016;17.ACA00.CE000.XQ16;created in commit 7;007.20.04.0.00
170000017;17.ACA00.CE000.XQ17;created in commit 7;007.20.03.0.00
170000018;17.ACA00.CE000.XQ18;created in commit 7;007.20.02.0.00
170000019;17.ACA00.CE000.XQ19;created in commit 7;007.20.01.0.00
170000020;17.ACA00.CE000.XQ20;created in commit 7;007.20.05.0.00
170000021;17.ACA00.CE000.XQ21;created in commit 7;007.20.04.0.00
170000022;17.ACA00.CE000.XQ22;created in commit 7;007.20.03.0.00
170000023;17.ACA00.CE000.XQ23;created in commit 7;007.20.02.0.00
170000024;17.ACA00.CE000.XQ24;created in commit 7;007.20.01.0.00
